{
  "accessors": [
    {
      "bufferView": 2,
      "componentType": 5126,
      "count": 65532,
      "max": [
        33.398941040039062,
        24.207254409790039,
        30.039331436157227
      ],
      "min": [
        -38.862834930419922,
        -25.046716690063477,
        -19.863491058349609
      ],
      "type": "VEC3"
    },
    {
      "bufferView": 2,
      "byteOffset": 786384,
      "componentType": 5126,
      "count": 65532,
      "max": [
        0.99999207258224487,
        0.96443009376525879,
        1
      ],
      "min": [
        -0.99998378753662109,
        -1,
        -0.99122452735900879
      ],
      "type": "VEC3"
    },
    {
      "bufferView": 3,
      "componentType": 5126,
      "count": 65532,
      "max": [
        0.99570345878601074,
        0.99833899736404419,
        0.82063102722167969,
        1
      ],
      "min": [
        -0.97534477710723877,
        -0.99994826316833496,
        -0.99987858533859253,
        1
      ],
      "type": "VEC4"
    },
    {
      "bufferView": 1,
      "componentType": 5126,
      "count": 65532,
      "max": [
        0.45442700386047363,
        0.97312897443771362
      ],
      "min": [
        0.037477001547813416,
        0.27612599730491638
      ],
      "type": "VEC2"
    },
    {
      "bufferView": 0,
      "componentType": 5125,
      "count": 343992,
      "max": [
        65531
      ],
      "min": [
        0
      ],
      "type": "SCALAR"
    },
    {
      "bufferView": 2,
      "byteOffset": 1572768,
      "componentType": 5126,
      "count": 65532,
      "max": [
        41.081645965576172,
        23.131383895874023,
        30.017570495605469
      ],
      "min": [
        -38.840446472167969,
        -25.11711311340332,
        -24.863491058349609
      ],
      "type": "VEC3"
    },
    {
      "bufferView": 2,
      "byteOffset": 2359152,
      "componentType": 5126,
      "count": 65532,
      "max": [
        0.99909663200378418,
        0.78530728816986084,
        1
      ],
      "min": [
        -0.99992620944976807,
        -1,
        -0.99860990047454834
      ],
      "type": "VEC3"
    },
    {
      "bufferView": 3,
      "byteOffset": 1048512,
      "componentType": 5126,
      "count": 65532,
      "max": [
        0.99999654293060303,
        0.97311913967132568,
        0.80350792407989502,
        1
      ],
      "min": [
        -0.99931138753890991,
        -0.99998480081558228,
        -0.99998652935028076,
        -1
      ],
      "type": "VEC4"
    },
    {
      "bufferView": 1,
      "byteOffset": 524256,
      "componentType": 5126,
      "count": 65532,
      "max": [
        0.57171398401260376,
        0.97231400012969971
      ],
      "min": [
        0.026870999485254288,
        0.29050201177597046
      ],
      "type": "VEC2"
    },
    {
      "bufferView": 0,
      "byteOffset": 1375968,
      "componentType": 5125,
      "count": 299184,
      "max": [
        65531
      ],
      "min": [
        0
      ],
      "type": "SCALAR"
    },
    {
      "bufferView": 2,
      "byteOffset": 3145536,
      "componentType": 5126,
      "count": 65532,
      "max": [
        41.157627105712891,
        6.9313821792602539,
        21.451398849487305
      ],
      "min": [
        -38.454833984375,
        -18.668619155883789,
        -24.394435882568359
      ],
      "type": "VEC3"
    },
    {
      "bufferView": 2,
      "byteOffset": 3931920,
      "componentType": 5126,
      "count": 65532,
      "max": [
        0.99995756149291992,
        0.42292460799217224,
        1
      ],
      "min": [
        -0.99942475557327271,
        -1,
        -0.92588013410568237
      ],
      "type": "VEC3"
    },
    {
      "bufferView": 3,
      "byteOffset": 2097024,
      "componentType": 5126,
      "count": 65532,
      "max": [
        0.92868685722351074,
        0.93936318159103394,
        0.53356832265853882,
        1
      ],
      "min": [
        -0.84516263008117676,
        -0.99994760751724243,
        -0.9996260404586792,
        -1
      ],
      "type": "VEC4"
    },
    {
      "bufferView": 1,
      "byteOffset": 1048512,
      "componentType": 5126,
      "count": 65532,
      "max": [
        0.60823798179626465,
        0.96956902742385864
      ],
      "min": [
        0.10556299984455109,
        0.3812670111656189
      ],
      "type": "VEC2"
    },
    {
      "bufferView": 0,
      "byteOffset": 2572704,
      "componentType": 5125,
      "count": 331311,
      "max": [
        65531
      ],
      "min": [
        0
      ],
      "type": "SCALAR"
    },
    {
      "bufferView": 2,
      "byteOffset": 4718304,
      "componentType": 5126,
      "count": 65532,
      "max": [
        41.073741912841797,
        34.620475769042969,
        28.742568969726562
      ],
      "min": [
        -38.826553344726562,
        -18.673471450805664,
        -24.863491058349609
      ],
      "type": "VEC3"
    },
    {
      "bufferView": 2,
      "byteOffset": 5504688,
      "componentType": 5126,
      "count": 65532,
      "max": [
        0.99961256980895996,
        1,
        1
      ],
      "min": [
        -1,
        -1,
        -0.99980765581130981
      ],
      "type": "VEC3"
    },
    {
      "bufferView": 3,
      "byteOffset": 3145536,
      "componentType": 5126,
      "count": 65532,
      "max": [
        0.99874484539031982,
        0.98189884424209595,
        0.98312008380889893,
        1
      ],
      "min": [
        -0.99999076128005981,
        -0.99998480081558228,
        -0.99981486797332764,
        -1
      ],
      "type": "VEC4"
    },
    {
      "bufferView": 1,
      "byteOffset": 1572768,
      "componentType": 5126,
      "count": 65532,
      "max": [
        0.94141697883605957,
        0.97311699390411377
      ],
      "min": [
        0.093206003308296204,
        0.21258999407291412
      ],
      "type": "VEC2"
    },
    {
      "bufferView": 0,
      "byteOffset": 3897948,
      "componentType": 5125,
      "count": 249816,
      "max": [
        65531
      ],
      "min": [
        0
      ],
      "type": "SCALAR"
    },
    {
      "bufferView": 2,
      "byteOffset": 6291072,
      "componentType": 5126,
      "count": 65532,
      "max": [
        39.198940277099609,
        32.531383514404297,
        27.53651237487793
      ],
      "min": [
        -38.616901397705078,
        -14.068619728088379,
        -25.063491821289062
      ],
      "type": "VEC3"
    },
    {
      "bufferView": 2,
      "byteOffset": 7077456,
      "componentType": 5126,
      "count": 65532,
      "max": [
        0.99986231327056885,
        1,
        0.92605829238891602
      ],
      "min": [
        -0.99999994039535522,
        -0.64322799444198608,
        -1
      ],
      "type": "VEC3"
    },
    {
      "bufferView": 3,
      "byteOffset": 4194048,
      "componentType": 5126,
      "count": 65532,
      "max": [
        0.35620337724685669,
        0.99587535858154297,
        0.97462022304534912,
        1
      ],
      "min": [
        -0.99999791383743286,
        -0.99168503284454346,
        -0.830230712890625,
        1
      ],
      "type": "VEC4"
    },
    {
      "bufferView": 1,
      "byteOffset": 2097024,
      "componentType": 5126,
      "count": 65532,
      "max": [
        0.92994201183319092,
        0.53906601667404175
      ],
      "min": [
        0.3528989851474762,
        0.042578998953104019
      ],
      "type": "VEC2"
    },
    {
      "bufferView": 0,
      "byteOffset": 4897212,
      "componentType": 5125,
      "count": 321102,
      "max": [
        65531
      ],
      "min": [
        0
      ],
      "type": "SCALAR"
    },
    {
      "bufferView": 2,
      "byteOffset": 7863840,
      "componentType": 5126,
      "count": 65532,
      "max": [
        37.998939514160156,
        32.533992767333984,
        29.736513137817383
      ],
      "min": [
        -38.390548706054688,
        4.1803779602050781,
        -14.063490867614746
      ],
      "type": "VEC3"
    },
    {
      "bufferView": 2,
      "byteOffset": 8650224,
      "componentType": 5126,
      "count": 65532,
      "max": [
        0.99181395769119263,
        1,
        0.95680713653564453
      ],
      "min": [
        -0.9796673059463501,
        -0.97940653562545776,
        -1
      ],
      "type": "VEC3"
    },
    {
      "bufferView": 3,
      "byteOffset": 5242560,
      "componentType": 5126,
      "count": 65532,
      "max": [
        0.08037981390953064,
        0.98449468612670898,
        0.99444484710693359,
        1
      ],
      "min": [
        -0.99999761581420898,
        -0.928996741771698,
        -0.86310309171676636,
        1
      ],
      "type": "VEC4"
    },
    {
      "bufferView": 1,
      "byteOffset": 2621280,
      "componentType": 5126,
      "count": 65532,
      "max": [
        0.92979300022125244,
        0.53571397066116333
      ],
      "min": [
        0.38389301300048828,
        0.1148419976234436
      ],
      "type": "VEC2"
    },
    {
      "bufferView": 0,
      "byteOffset": 6181620,
      "componentType": 5125,
      "count": 326202,
      "max": [
        65531
      ],
      "min": [
        0
      ],
      "type": "SCALAR"
    },
    {
      "bufferView": 2,
      "byteOffset": 9436608,
      "componentType": 5126,
      "count": 65532,
      "max": [
        41.157627105712891,
        31.331384658813477,
        29.53651237487793
      ],
      "min": [
        -38.774566650390625,
        -13.068619728088379,
        -24.865968704223633
      ],
      "type": "VEC3"
    },
    {
      "bufferView": 2,
      "byteOffset": 10222992,
      "componentType": 5126,
      "count": 65532,
      "max": [
        0.99995756149291992,
        1,
        0.99750763177871704
      ],
      "min": [
        -1,
        -0.89082413911819458,
        -1
      ],
      "type": "VEC3"
    },
    {
      "bufferView": 3,
      "byteOffset": 6291072,
      "componentType": 5126,
      "count": 65532,
      "max": [
        0.53417229652404785,
        0.98126864433288574,
        0.9934086799621582,
        1
      ],
      "min": [
        -0.99994993209838867,
        -0.95649218559265137,
        -0.98947250843048096,
        1
      ],
      "type": "VEC4"
    },
    {
      "bufferView": 1,
      "byteOffset": 3145536,
      "componentType": 5126,
      "count": 65532,
      "max": [
        0.94127100706100464,
        0.54247498512268066
      ],
      "min": [
        0.32245698571205139,
        0.013976999558508396
      ],
      "type": "VEC2"
    },
    {
      "bufferView": 0,
      "byteOffset": 7486428,
      "componentType": 5125,
      "count": 270909,
      "max": [
        65531
      ],
      "min": [
        0
      ],
      "type": "SCALAR"
    },
    {
      "bufferView": 2,
      "byteOffset": 11009376,
      "componentType": 5126,
      "count": 25928,
      "max": [
        41.018074035644531,
        25.131383895874023,
        28.136512756347656
      ],
      "min": [
        -34.063758850097656,
        -13.62287712097168,
        -25.263490676879883
      ],
      "type": "VEC3"
    },
    {
      "bufferView": 2,
      "byteOffset": 11320512,
      "componentType": 5126,
      "count": 25928,
      "max": [
        0.99977231025695801,
        1,
        0.99446135759353638
      ],
      "min": [
        -0.99963772296905518,
        -0.86889904737472534,
        -1
      ],
      "type": "VEC3"
    },
    {
      "bufferView": 3,
      "byteOffset": 7339584,
      "componentType": 5126,
      "count": 25928,
      "max": [
        0.34283497929573059,
        0.94586664438247681,
        0.9638640284538269,
        1
      ],
      "min": [
        -0.99998313188552856,
        -0.94467347860336304,
        -0.98947250843048096,
        1
      ],
      "type": "VEC4"
    },
    {
      "bufferView": 1,
      "byteOffset": 3669792,
      "componentType": 5126,
      "count": 25928,
      "max": [
        0.92956101894378662,
        0.46257200837135315
      ],
      "min": [
        0.026870999485254288,
        0.014093000441789627
      ],
      "type": "VEC2"
    },
    {
      "bufferView": 0,
      "byteOffset": 8570064,
      "componentType": 5125,
      "count": 111414,
      "max": [
        25927
      ],
      "min": [
        0
      ],
      "type": "SCALAR"
    }
  ],
  "asset": {
    "extras": {
      "author": "Lapworth Museum of Geology (https://sketchfab.com/LapworthMuseum)",
      "license": "CC-BY-NC-4.0 (http://creativecommons.org/licenses/by-nc/4.0/)",
      "source": "https://sketchfab.com/3d-models/dalmanites-caudatus-birug-6103-e0737270eadf463abd5b1ad30234b604",
      "title": "Dalmanites caudatus BIRUG 6103"
    },
    "generator": "Sketchfab-5.84.1",
    "version": "2.0"
  },
  "bufferViews": [
    {
      "buffer": 0,
      "byteLength": 9015720,
      "byteOffset": 0,
      "name": "floatBufferViews",
      "target": 34963
    },
    {
      "buffer": 0,
      "byteLength": 3877216,
      "byteOffset": 9015720,
      "byteStride": 8,
      "name": "floatBufferViews",
      "target": 34962
    },
    {
      "buffer": 0,
      "byteLength": 11631648,
      "byteOffset": 12892936,
      "byteStride": 12,
      "name": "floatBufferViews",
      "target": 34962
    },
    {
      "buffer": 0,
      "byteLength": 7754432,
      "byteOffset": 24524584,
      "byteStride": 16,
      "name": "floatBufferViews",
      "target": 34962
    }
  ],
  "buffers": [
    {
      "byteLength": 32279016,
      "uri": "scene.bin"
    }
  ],
  "images": [
    {
      "uri": "textures/material_0_baseColor.jpeg"
    }
  ],
  "materials": [
    {
      "doubleSided": true,
      "emissiveFactor": [
        0,
        0,
        0
      ],
      "name": "material_0",
      "pbrMetallicRoughness": {
        "baseColorFactor": [
          1,
          1,
          1,
          1
        ],
        "baseColorTexture": {
          "index": 0,
          "texCoord": 0
        },
        "metallicFactor": 0,
        "roughnessFactor": 0.38852896341463417
      }
    }
  ],
  "meshes": [
    {
      "primitives": [
        {
          "attributes": {
            "NORMAL": 1,
            "POSITION": 0,
            "TANGENT": 2,
            "TEXCOORD_0": 3
          },
          "indices": 4,
          "material": 0,
          "mode": 4
        }
      ]
    },
    {
      "primitives": [
        {
          "attributes": {
            "NORMAL": 6,
            "POSITION": 5,
            "TANGENT": 7,
            "TEXCOORD_0": 8
          },
          "indices": 9,
          "material": 0,
          "mode": 4
        }
      ]
    },
    {
      "primitives": [
        {
          "attributes": {
            "NORMAL": 11,
            "POSITION": 10,
            "TANGENT": 12,
            "TEXCOORD_0": 13
          },
          "indices": 14,
          "material": 0,
          "mode": 4
        }
      ]
    },
    {
      "primitives": [
        {
          "attributes": {
            "NORMAL": 16,
            "POSITION": 15,
            "TANGENT": 17,
            "TEXCOORD_0": 18
          },
          "indices": 19,
          "material": 0,
          "mode": 4
        }
      ]
    },
    {
      "primitives": [
        {
          "attributes": {
            "NORMAL": 21,
            "POSITION": 20,
            "TANGENT": 22,
            "TEXCOORD_0": 23
          },
          "indices": 24,
          "material": 0,
          "mode": 4
        }
      ]
    },
    {
      "primitives": [
        {
          "attributes": {
            "NORMAL": 26,
            "POSITION": 25,
            "TANGENT": 27,
            "TEXCOORD_0": 28
          },
          "indices": 29,
          "material": 0,
          "mode": 4
        }
      ]
    },
    {
      "primitives": [
        {
          "attributes": {
            "NORMAL": 31,
            "POSITION": 30,
            "TANGENT": 32,
            "TEXCOORD_0": 33
          },
          "indices": 34,
          "material": 0,
          "mode": 4
        }
      ]
    },
    {
      "primitives": [
        {
          "attributes": {
            "NORMAL": 36,
            "POSITION": 35,
            "TANGENT": 37,
            "TEXCOORD_0": 38
          },
          "indices": 39,
          "material": 0,
          "mode": 4
        }
      ]
    }
  ],
  "nodes": [
    {
      "children": [
        1
      ],
      "name": "RootNode (gltf orientation matrix)",
      "rotation": [
        -0.70710678118654746,
        -0,
        -0,
        0.70710678118654757
      ]
    },
    {
      "children": [
        2
      ],
      "matrix": [
        0.97809123992919922,
        -0.20530048012733459,
        0.034486077725887299,
        0,
        0.16313560307025909,
        0.65297192335128784,
        -0.73960423469543457,
        0,
        0.12932266294956207,
        0.72902631759643555,
        0.67215794324874878,
        0,
        -1.0588449239730835,
        0.14369423687458038,
        4.2576708793640137,
        1
      ],
      "name": "RootNode (model correction matrix)"
    },
    {
      "children": [
        3,
        4,
        5,
        6,
        7,
        8,
        9,
        10
      ],
      "name": "BIRUG 6103 Phacops caudatus.obj.cleaner.materialmerger.gles"
    },
    {
      "mesh": 0,
      "name": ""
    },
    {
      "mesh": 1,
      "name": ""
    },
    {
      "mesh": 2,
      "name": ""
    },
    {
      "mesh": 3,
      "name": ""
    },
    {
      "mesh": 4,
      "name": ""
    },
    {
      "mesh": 5,
      "name": ""
    },
    {
      "mesh": 6,
      "name": ""
    },
    {
      "mesh": 7,
      "name": ""
    }
  ],
  "samplers": [
    {
      "magFilter": 9729,
      "minFilter": 9987,
      "wrapS": 10497,
      "wrapT": 10497
    }
  ],
  "scene": 0,
  "scenes": [
    {
      "name": "OSG_Scene",
      "nodes": [
        0
      ]
    }
  ],
  "textures": [
    {
      "sampler": 0,
      "source": 0
    }
  ]
}

